{
  "current_page": 1,
  "data": [
    {
      "id": 1,
      "name": "fugit",
      "from": "fugit",
      "quantity": 555.3,
      "buy_at": "2005-06-19T06:27:45.000000Z",
      "created_at": "2025-11-12T08:38:02.000000Z",
      "updated_at": "2025-11-12T08:38:02.000000Z"
    },
    {
      "id": 2,
      "name": "nemo",
      "from": "nisi",
      "quantity": 974.4,
      "buy_at": "2010-03-01T17:14:46.000000Z",
      "created_at": "2025-11-12T08:38:02.000000Z",
      "updated_at": "2025-11-12T08:38:02.000000Z"
    },
    {
      "id": 3,
      "name": "quae",
      "from": "est",
      "quantity": 956.8,
      "buy_at": "1972-11-17T13:01:51.000000Z",
      "created_at": "2025-11-12T08:38:02.000000Z",
      "updated_at": "2025-11-12T08:38:02.000000Z"
    },
    {
      "id": 4,
      "name": "maxime",
      "from": "laboriosam",
      "quantity": 103.9,
      "buy_at": "1980-04-18T12:40:20.000000Z",
      "created_at": "2025-11-12T08:38:02.000000Z",
      "updated_at": "2025-11-12T08:38:02.000000Z"
    },
    {
      "id": 5,
      "name": "vitae",
      "from": "iste",
      "quantity": 170.5,
      "buy_at": "1994-04-08T23:45:14.000000Z",
      "created_at": "2025-11-12T08:38:02.000000Z",
      "updated_at": "2025-11-12T08:38:02.000000Z"
    },
    {
      "id": 6,
      "name": "omnis",
      "from": "aspernatur",
      "quantity": 320.8,
      "buy_at": "1985-05-27T04:01:37.000000Z",
      "created_at": "2025-11-12T08:38:02.000000Z",
      "updated_at": "2025-11-12T08:38:02.000000Z"
    },
    {
      "id": 7,
      "name": "voluptas",
      "from": "excepturi",
      "quantity": 323.4,
      "buy_at": "2004-08-08T01:55:40.000000Z",
      "created_at": "2025-11-12T08:38:03.000000Z",
      "updated_at": "2025-11-12T08:38:03.000000Z"
    },
    {
      "id": 8,
      "name": "explicabo",
      "from": "et",
      "quantity": 684.1,
      "buy_at": "2017-11-03T14:26:33.000000Z",
      "created_at": "2025-11-12T08:38:03.000000Z",
      "updated_at": "2025-11-12T08:38:03.000000Z"
    },
    {
      "id": 9,
      "name": "iure",
      "from": "perspiciatis",
      "quantity": 746.4,
      "buy_at": "2022-08-11T01:06:44.000000Z",
      "created_at": "2025-11-12T08:38:03.000000Z",
      "updated_at": "2025-11-12T08:38:03.000000Z"
    },
    {
      "id": 10,
      "name": "aliquam",
      "from": "dolores",
      "quantity": 584.6,
      "buy_at": "2016-10-11T14:27:38.000000Z",
      "created_at": "2025-11-12T08:38:03.000000Z",
      "updated_at": "2025-11-12T08:38:03.000000Z"
    }
  ],
  "first_page_url": "http://localhost:8080/silages?page=1",
  "from": 1,
  "last_page": 3,
  "last_page_url": "http://localhost:8080/silages?page=3",
  "links": [
    {
      "url": null,
      "label": "&laquo; Previous",
      "page": null,
      "active": false
    },
    {
      "url": "http://localhost:8080/silages?page=1",
      "label": "1",
      "page": 1,
      "active": true
    },
    {
      "url": "http://localhost:8080/silages?page=2",
      "label": "2",
      "page": 2,
      "active": false
    },
    {
      "url": "http://localhost:8080/silages?page=3",
      "label": "3",
      "page": 3,
      "active": false
    },
    {
      "url": "http://localhost:8080/silages?page=2",
      "label": "Next &raquo;",
      "page": 2,
      "active": false
    }
  ],
  "next_page_url": "http://localhost:8080/silages?page=2",
  "path": "http://localhost:8080/silages",
  "per_page": 10,
  "prev_page_url": null,
  "to": 10,
  "total": 30
}
